{
  "version": "2022.12.21",
  "description": "Dungreed is a game",
  "homepage": "https://igg-games.com/dungreed-free-939716852-download.html",
  "url": "http://alist.zxc.cn/d/scoop/Dungreed.v21.12.2022.7z",
  "hash": "fb7f5b1bdb3b2c197212c77627629293e6da09b382416417b74512204598b297",
  "bin": "Dungreed.exe",
  "post_install": [
    "New-Item -ItemType directory -Path $env:GameSave\\Dungreed > $null 2>$1",
    "New-Item -ItemType Junction -Path \"$dir\\Dungreed_Data\\StreamingAssets\" -Target \"$env:GameSave\\Dungreed\" >$null"
  ],
  "shortcuts": [
    [
      "Dungreed.exe",
      "Dungreed"
    ]
  ]
}
