{
  "version": "0.28.3",
  "description": "ZERO Sievert",
  "url": "http://alist.zxc.cn/d/scoop/ZERO.Sievert.v0.28.3.7z",
  "hash": "e75deab4b2e82c0fad0781906ab37e9895d80cfe040ef373ca41f2be9d362fef",
  "bin": "ZERO Sievert.exe",
  "post_install": [
    "New-Item -ItemType directory -Path $env:GameSave\\ZERO_Sievert > $null 2>$1",
    "New-Item -ItemType Junction -Path $env:LOCALAPPDATA\\ZERO_Sievert -Target $env:GameSave\\ZERO_Sievert >$null"
  ],
  "uninstaller": {
    "script": "Remove-Item -path $env:LOCALAPPDATA\\ZERO_Sievert -Recurse -Force"
  },
  "shortcuts": [
    [
      "ZERO Sievert.exe",
      "ZERO Sievert"
    ]
  ]
}
